%TF.GenerationSoftware,KiCad,Pcbnew,6.0.0-rc1-unknown-51473d9~84~ubuntu18.04.1*%
%TF.CreationDate,2018-08-31T20:27:17+03:00*%
%TF.ProjectId,TDA7294+LM3886,544441373239342B4C4D333838362E6B,rev?*%
%TF.SameCoordinates,Original*%
%TF.FileFunction,Profile,NP*%
%FSLAX46Y46*%
G04 Gerber Fmt 4.6, Leading zero omitted, Abs format (unit mm)*
G04 Created by KiCad (PCBNEW 6.0.0-rc1-unknown-51473d9~84~ubuntu18.04.1) date Fri Aug 31 20:27:17 2018*
%MOMM*%
%LPD*%
G01*
G04 APERTURE LIST*
%ADD10C,0.500000*%
G04 APERTURE END LIST*
D10*
X193040000Y-55880000D02*
X193040000Y-16510000D01*
X95250000Y-55880000D02*
X193040000Y-55880000D01*
X95250000Y-16510000D02*
X95250000Y-55880000D01*
X193040000Y-16510000D02*
X95250000Y-16510000D01*
M02*
